DSO/EventGeneratorDataInverted.csv

Record Length,1.00E+00,,0,0
Sample Interval,1.00E+00,,2000,0
Trigger Point,1.00E+00,,2001,6.336996337
,,,2002,8.658240416
,,,2003,9.508512973
,,,2004,9.819968122
Source,CH1,,2005,9.934054257
Vertical Units,A,,2006,9.97584405
Vertical Scale,1.00E+01,,2007,9.991151667
Vertical Offset,0.00E+00,,2008,9.996758852
Horizontal Units,s,,2009,9.998812766
Horizontal Scale,1.00E+00,,2010,9.999565116
Pt Fmt,Y,,2011,9.999840702
Yzero,0.00E+00,,2012,9.999941649
Probe Atten,1.00E+02,,2013,9.999978626
Model Number,TBS1072B-EDU,,2014,9.999992171
Serial Number,C016071,,2015,9.999997132
Firmware Version,FV:v4.06,,2016,9.99999895
,,,2017,9.999999615
,,,2018,9.999999859
,,,2019,9.999999948
,,,2020,9.999999981
,,,2021,9.999999993
,,,2022,9.999999997
,,,2023,9.999999999
,,,2024,10
,,,2025,10
,,,2026,10
,,,2027,10
,,,2028,10
,,,2029,10
,,,2030,10
,,,2031,10
,,,2032,10
,,,2033,10
,,,2034,10
,,,2035,10
,,,2036,10
,,,2037,10
,,,2038,10
,,,2039,10
,,,2040,10
,,,2041,10
,,,2042,10
,,,2043,10
,,,2044,10
,,,2045,10
,,,2046,10
,,,2047,10
,,,2048,10
,,,2049,10
,,,2050,10
,,,2051,10
,,,2052,10
,,,2053,10
,,,2054,10
,,,2055,10
,,,2056,10
,,,2057,10
,,,2058,10
,,,2059,10
,,,2060,10
,,,2061,10
,,,2062,10
,,,2063,10
,,,2064,10
,,,2065,10
,,,2066,10
,,,2067,10
,,,2068,10
,,,2069,10
,,,2070,10
,,,2071,10
,,,2072,10
,,,2073,10
,,,2074,10
,,,2075,10
,,,2076,10
,,,2077,10
,,,2078,10
,,,2079,10
,,,2080,10
,,,2081,10
,,,2082,10
,,,2083,10
,,,2084,10
,,,2085,10
,,,2086,10
,,,2087,10
,,,2088,10
,,,2089,10
,,,2090,10
,,,2091,10
,,,2092,10
,,,2093,10
,,,2094,10
,,,2095,10
,,,2096,10
,,,2097,10
,,,2098,10
,,,2099,10
,,,2100,10
,,,2101,10
,,,2102,10
,,,2103,10
,,,2104,10
,,,2105,10
,,,2106,10
,,,2107,10
,,,2108,10
,,,2109,10
,,,2110,10
,,,2111,10
,,,2112,10
,,,2113,10
,,,2114,10
,,,2115,10
,,,2116,10
,,,2117,10
,,,2118,10
,,,2119,10
,,,2120,10
,,,2121,10
,,,2122,10
,,,2123,10
,,,2124,10
,,,2125,10
,,,2126,10
,,,2127,10
,,,2128,10
,,,2129,10
,,,2130,10
,,,2131,10
,,,2132,10
,,,2133,10
,,,2134,10
,,,2135,10
,,,2136,10
,,,2137,10
,,,2138,10
,,,2139,10
,,,2140,10
,,,2141,10
,,,2142,10
,,,2143,10
,,,2144,10
,,,2145,10
,,,2146,10
,,,2147,10
,,,2148,10
,,,2149,10
,,,2150,10
,,,2151,10
,,,2152,10
,,,2153,10
,,,2154,10
,,,2155,10
,,,2156,10
,,,2157,10
,,,2158,10
,,,2159,10
,,,2160,10
,,,2161,10
,,,2162,10
,,,2163,10
,,,2164,10
,,,2165,10
,,,2166,10
,,,2167,10
,,,2168,10
,,,2169,10
,,,2170,10
,,,2171,10
,,,2172,10
,,,2173,10
,,,2174,10
,,,2175,10
,,,2176,10
,,,2177,10
,,,2178,10
,,,2179,10
,,,2180,10
,,,2181,10
,,,2182,10
,,,2183,10
,,,2184,10
,,,2185,10
,,,2186,10
,,,2187,10
,,,2188,10
,,,2189,10
,,,2190,10
,,,2191,10
,,,2192,10
,,,2193,10
,,,2194,10
,,,2195,10
,,,2196,10
,,,2197,10
,,,2198,10
,,,2199,10
,,,2200,10
,,,2201,10
,,,2202,10
,,,2203,10
,,,2204,10
,,,2205,10
,,,2206,10
,,,2207,10
,,,2208,10
,,,2209,10
,,,2210,10
,,,2211,10
,,,2212,10
,,,2213,10
,,,2214,10
,,,2215,10
,,,2216,10
,,,2217,10
,,,2218,10
,,,2219,10
,,,2220,10
,,,2221,10
,,,2222,10
,,,2223,10
,,,2224,10
,,,2225,10
,,,2226,10
,,,2227,10
,,,2228,10
,,,2229,10
,,,2230,10
,,,2231,10
,,,2232,10
,,,2233,10
,,,2234,10
,,,2235,10
,,,2236,10
,,,2237,10
,,,2238,10
,,,2239,10
,,,2240,10
,,,2241,10
,,,2242,10
,,,2243,10
,,,2244,10
,,,2245,10
,,,2246,10
,,,2247,10
,,,2248,10
,,,2249,10
,,,2250,10
,,,2251,10
,,,2252,10
,,,2253,10
,,,2254,10
,,,2255,10
,,,2256,10
,,,2257,10
,,,2258,10
,,,2259,10
,,,2260,10
,,,2261,10
,,,2262,10
,,,2263,10
,,,2264,10
,,,2265,10
,,,2266,10
,,,2267,10
,,,2268,10
,,,2269,10
,,,2270,10
,,,2271,10
,,,2272,10
,,,2273,10
,,,2274,10
,,,2275,10
,,,2276,10
,,,2277,10
,,,2278,10
,,,2279,10
,,,2280,10
,,,2281,10
,,,2282,10
,,,2283,10
,,,2284,10
,,,2285,10
,,,2286,10
,,,2287,10
,,,2288,10
,,,2289,10
,,,2290,10
,,,2291,10
,,,2292,10
,,,2293,10
,,,2294,10
,,,2295,10
,,,2296,10
,,,2297,10
,,,2298,10
,,,2299,10
,,,2300,10
,,,2301,10
,,,2302,10
,,,2303,10
,,,2304,10
,,,2305,10
,,,2306,10
,,,2307,10
,,,2308,10
,,,2309,10
,,,2310,10
,,,2311,10
,,,2312,10
,,,2313,10
,,,2314,10
,,,2315,10
,,,2316,10
,,,2317,10
,,,2318,10
,,,2319,10
,,,2320,10
,,,2321,10
,,,2322,10
,,,2323,10
,,,2324,10
,,,2325,10
,,,2326,10
,,,2327,10
,,,2328,10
,,,2329,10
,,,2330,10
,,,2331,10
,,,2332,10
,,,2333,10
,,,2334,10
,,,2335,10
,,,2336,10
,,,2337,10
,,,2338,10
,,,2339,10
,,,2340,10
,,,2341,10
,,,2342,10
,,,2343,10
,,,2344,10
,,,2345,10
,,,2346,10
,,,2347,10
,,,2348,10
,,,2349,10
,,,2350,10
,,,2351,10
,,,2352,10
,,,2353,10
,,,2354,10
,,,2355,10
,,,2356,10
,,,2357,10
,,,2358,10
,,,2359,10
,,,2360,10
,,,2361,10
,,,2362,10
,,,2363,10
,,,2364,10
,,,2365,10
,,,2366,10
,,,2367,10
,,,2368,10
,,,2369,10
,,,2370,10
,,,2371,10
,,,2372,10
,,,2373,10
,,,2374,10
,,,2375,10
,,,2376,10
,,,2377,10
,,,2378,10
,,,2379,10
,,,2380,10
,,,2381,10
,,,2382,10
,,,2383,10
,,,2384,10
,,,2385,10
,,,2386,10
,,,2387,10
,,,2388,10
,,,2389,10
,,,2390,10
,,,2391,10
,,,2392,10
,,,2393,10
,,,2394,10
,,,2395,10
,,,2396,10
,,,2397,10
,,,2398,10
,,,2399,10
,,,2400,10
,,,2401,10
,,,2402,10
,,,2403,10
,,,2404,10
,,,2405,10
,,,2406,10
,,,2407,10
,,,2408,10
,,,2409,10
,,,2410,10
,,,2411,10
,,,2412,10
,,,2413,10
,,,2414,10
,,,2415,10
,,,2416,10
,,,2417,10
,,,2418,10
,,,2419,10
,,,2420,10
,,,2421,10
,,,2422,10
,,,2423,10
,,,2424,10
,,,2425,10
,,,2426,10
,,,2427,10
,,,2428,10
,,,2429,10
,,,2430,10
,,,2431,10
,,,2432,10
,,,2433,10
,,,2434,10
,,,2435,10
,,,2436,10
,,,2437,10
,,,2438,10
,,,2439,10
,,,2440,10
,,,2441,10
,,,2442,10
,,,2443,10
,,,2444,10
,,,2445,10
,,,2446,10
,,,2447,10
,,,2448,10
,,,2449,10
,,,2450,10
,,,2451,10
,,,2452,10
,,,2453,10
,,,2454,10
,,,2455,10
,,,2456,10
,,,2457,10
,,,2458,10
,,,2459,10
,,,2460,10
,,,2461,10
,,,2462,10
,,,2463,10
,,,2464,10
,,,2465,10
,,,2466,10
,,,2467,10
,,,2468,10
,,,2469,10
,,,2470,10
,,,2471,10
,,,2472,10
,,,2473,10
,,,2474,10
,,,2475,10
,,,2476,10
,,,2477,10
,,,2478,10
,,,2479,10
,,,2480,10
,,,2481,10
,,,2482,10
,,,2483,10
,,,2484,10
,,,2485,10
,,,2486,10
,,,2487,10
,,,2488,10
,,,2489,10
,,,2490,10
,,,2491,10
,,,2492,10
,,,2493,10
,,,2494,10
,,,2495,10
,,,2496,10
,,,2497,10
,,,2498,10
,,,2499,10
,,,2500,10
,,,2501,10
,,,2502,10
,,,2503,10
,,,2504,10
,,,2505,10
,,,2506,10
,,,2507,10
,,,2508,10
,,,2509,10
,,,2510,10
,,,2511,10
,,,2512,10
,,,2513,10
,,,2514,10
,,,2515,10
,,,2516,10
,,,2517,10
,,,2518,10
,,,2519,10
,,,2520,10
,,,2521,10
,,,2522,10
,,,2523,10
,,,2524,10
,,,2525,10
,,,2526,10
,,,2527,10
,,,2528,10
,,,2529,10
,,,2530,10
,,,2531,10
,,,2532,10
,,,2533,10
,,,2534,10
,,,2535,10
,,,2536,10
,,,2537,10
,,,2538,10
,,,2539,10
,,,2540,10
,,,2541,10
,,,2542,10
,,,2543,10
,,,2544,10
,,,2545,10
,,,2546,10
,,,2547,10
,,,2548,10
,,,2549,10
,,,2550,10
,,,2551,10
,,,2552,10
,,,2553,10
,,,2554,10
,,,2555,10
,,,2556,10
,,,2557,10
,,,2558,10
,,,2559,10
,,,2560,10
,,,2561,10
,,,2562,10
,,,2563,10
,,,2564,10
,,,2565,10
,,,2566,10
,,,2567,10
,,,2568,10
,,,2569,10
,,,2570,10
,,,2571,10
,,,2572,10
,,,2573,10
,,,2574,10
,,,2575,10
,,,2576,10
,,,2577,10
,,,2578,10
,,,2579,10
,,,2580,10
,,,2581,10
,,,2582,10
,,,2583,10
,,,2584,10
,,,2585,10
,,,2586,10
,,,2587,10
,,,2588,10
,,,2589,10
,,,2590,10
,,,2591,10
,,,2592,10
,,,2593,10
,,,2594,10
,,,2595,10
,,,2596,10
,,,2597,10
,,,2598,10
,,,2599,10
,,,2600,10
,,,2601,10
,,,2602,10
,,,2603,10
,,,2604,10
,,,2605,10
,,,2606,10
,,,2607,10
,,,2608,10
,,,2609,10
,,,2610,10
,,,2611,10
,,,2612,10
,,,2613,10
,,,2614,10
,,,2615,10
,,,2616,10
,,,2617,10
,,,2618,10
,,,2619,10
,,,2620,10
,,,2621,10
,,,2622,10
,,,2623,10
,,,2624,10
,,,2625,10
,,,2626,10
,,,2627,10
,,,2628,10
,,,2629,10
,,,2630,10
,,,2631,10
,,,2632,10
,,,2633,10
,,,2634,10
,,,2635,10
,,,2636,10
,,,2637,10
,,,2638,10
,,,2639,10
,,,2640,10
,,,2641,10
,,,2642,10
,,,2643,10
,,,2644,10
,,,2645,10
,,,2646,10
,,,2647,10
,,,2648,10
,,,2649,10
,,,2650,10
,,,2651,10
,,,2652,10
,,,2653,10
,,,2654,10
,,,2655,10
,,,2656,10
,,,2657,10
,,,2658,10
,,,2659,10
,,,2660,10
,,,2661,10
,,,2662,10
,,,2663,10
,,,2664,10
,,,2665,10
,,,2666,10
,,,2667,10
,,,2668,10
,,,2669,10
,,,2670,10
,,,2671,10
,,,2672,10
,,,2673,10
,,,2674,10
,,,2675,10
,,,2676,10
,,,2677,10
,,,2678,10
,,,2679,10
,,,2680,10
,,,2681,10
,,,2682,10
,,,2683,10
,,,2684,10
,,,2685,10
,,,2686,10
,,,2687,10
,,,2688,10
,,,2689,10
,,,2690,10
,,,2691,10
,,,2692,10
,,,2693,10
,,,2694,10
,,,2695,10
,,,2696,10
,,,2697,10
,,,2698,10
,,,2699,10
,,,2700,10
,,,2701,10
,,,2702,10
,,,2703,10
,,,2704,10
,,,2705,10
,,,2706,10
,,,2707,10
,,,2708,10
,,,2709,10
,,,2710,10
,,,2711,10
,,,2712,10
,,,2713,10
,,,2714,10
,,,2715,10
,,,2716,10
,,,2717,10
,,,2718,10
,,,2719,10
,,,2720,10
,,,2721,10
,,,2722,10
,,,2723,10
,,,2724,10
,,,2725,10
,,,2726,10
,,,2727,10
,,,2728,10
,,,2729,10
,,,2730,10
,,,2731,10
,,,2732,10
,,,2733,10
,,,2734,10
,,,2735,10
,,,2736,10
,,,2737,10
,,,2738,10
,,,2739,10
,,,2740,10
,,,2741,10
,,,2742,10
,,,2743,10
,,,2744,10
,,,2745,10
,,,2746,10
,,,2747,10
,,,2748,10
,,,2749,10
,,,2750,10
,,,2751,10
,,,2752,10
,,,2753,10
,,,2754,10
,,,2755,10
,,,2756,10
,,,2757,10
,,,2758,10
,,,2759,10
,,,2760,10
,,,2761,10
,,,2762,10
,,,2763,10
,,,2764,10
,,,2765,10
,,,2766,10
,,,2767,10
,,,2768,10
,,,2769,10
,,,2770,10
,,,2771,10
,,,2772,10
,,,2773,10
,,,2774,10
,,,2775,10
,,,2776,10
,,,2777,10
,,,2778,10
,,,2779,10
,,,2780,10
,,,2781,10
,,,2782,10
,,,2783,10
,,,2784,10
,,,2785,10
,,,2786,10
,,,2787,10
,,,2788,10
,,,2789,10
,,,2790,10
,,,2791,10
,,,2792,10
,,,2793,10
,,,2794,10
,,,2795,10
,,,2796,10
,,,2797,10
,,,2798,10
,,,2799,10
,,,2800,10
,,,2801,10
,,,2802,10
,,,2803,10
,,,2804,10
,,,2805,10
,,,2806,10
,,,2807,10
,,,2808,10
,,,2809,10
,,,2810,10
,,,2811,10
,,,2812,10
,,,2813,10
,,,2814,10
,,,2815,10
,,,2816,10
,,,2817,10
,,,2818,10
,,,2819,10
,,,2820,10
,,,2821,10
,,,2822,10
,,,2823,10
,,,2824,10
,,,2825,10
,,,2826,10
,,,2827,10
,,,2828,10
,,,2829,10
,,,2830,10
,,,2831,10
,,,2832,10
,,,2833,10
,,,2834,10
,,,2835,10
,,,2836,10
,,,2837,10
,,,2838,10
,,,2839,10
,,,2840,10
,,,2841,10
,,,2842,10
,,,2843,10
,,,2844,10
,,,2845,10
,,,2846,10
,,,2847,10
,,,2848,10
,,,2849,10
,,,2850,10
,,,2851,10
,,,2852,10
,,,2853,10
,,,2854,10
,,,2855,10
,,,2856,10
,,,2857,10
,,,2858,10
,,,2859,10
,,,2860,10
,,,2861,10
,,,2862,10
,,,2863,10
,,,2864,10
,,,2865,10
,,,2866,10
,,,2867,10
,,,2868,10
,,,2869,10
,,,2870,10
,,,2871,10
,,,2872,10
,,,2873,10
,,,2874,10
,,,2875,10
,,,2876,10
,,,2877,10
,,,2878,10
,,,2879,10
,,,2880,10
,,,2881,10
,,,2882,10
,,,2883,10
,,,2884,10
,,,2885,10
,,,2886,10
,,,2887,10
,,,2888,10
,,,2889,10
,,,2890,10
,,,2891,10
,,,2892,10
,,,2893,10
,,,2894,10
,,,2895,10
,,,2896,10
,,,2897,10
,,,2898,10
,,,2899,10
,,,2900,10
,,,2901,10
,,,2902,10
,,,2903,10
,,,2904,10
,,,2905,10
,,,2906,10
,,,2907,10
,,,2908,10
,,,2909,10
,,,2910,10
,,,2911,10
,,,2912,10
,,,2913,10
,,,2914,10
,,,2915,10
,,,2916,10
,,,2917,10
,,,2918,10
,,,2919,10
,,,2920,10
,,,2921,10
,,,2922,10
,,,2923,10
,,,2924,10
,,,2925,10
,,,2926,10
,,,2927,10
,,,2928,10
,,,2929,10
,,,2930,10
,,,2931,10
,,,2932,10
,,,2933,10
,,,2934,10
,,,2935,10
,,,2936,10
,,,2937,10
,,,2938,10
,,,2939,10
,,,2940,10
,,,2941,10
,,,2942,10
,,,2943,10
,,,2944,10
,,,2945,10
,,,2946,10
,,,2947,10
,,,2948,10
,,,2949,10
,,,2950,10
,,,2951,10
,,,2952,10
,,,2953,10
,,,2954,10
,,,2955,10
,,,2956,10
,,,2957,10
,,,2958,10
,,,2959,10
,,,2960,10
,,,2961,10
,,,2962,10
,,,2963,10
,,,2964,10
,,,2965,10
,,,2966,10
,,,2967,10
,,,2968,10
,,,2969,10
,,,2970,10
,,,2971,10
,,,2972,10
,,,2973,10
,,,2974,10
,,,2975,10
,,,2976,10
,,,2977,10
,,,2978,10
,,,2979,10
,,,2980,10
,,,2981,10
,,,2982,10
,,,2983,10
,,,2984,10
,,,2985,10
,,,2986,10
,,,2987,10
,,,2988,10
,,,2989,10
,,,2990,10
,,,2991,10
,,,2992,10
,,,2993,10
,,,2994,10
,,,2995,10
,,,2996,10
,,,2997,10
,,,2998,10
,,,2999,10
,,,3000,10
,,,3001,10
,,,3002,10
,,,3003,10
,,,3004,10
,,,3005,10
,,,3006,10
,,,3007,10
,,,3008,10
,,,3009,10
,,,3010,10
,,,3011,10
,,,3012,10
,,,3013,10
,,,3014,10
,,,3015,10
,,,3016,10
,,,3017,10
,,,3018,10
,,,3019,10
,,,3020,10
,,,3021,10
,,,3022,10
,,,3023,10
,,,3024,10
,,,3025,10
,,,3026,10
,,,3027,10
,,,3028,10
,,,3029,10
,,,3030,10
,,,3031,10
,,,3032,10
,,,3033,10
,,,3034,10
,,,3035,10
,,,3036,10
,,,3037,10
,,,3038,10
,,,3039,10
,,,3040,10
,,,3041,10
,,,3042,10
,,,3043,10
,,,3044,10
,,,3045,10
,,,3046,10
,,,3047,10
,,,3048,10
,,,3049,10
,,,3050,10
,,,3051,10
,,,3052,10
,,,3053,10
,,,3054,10
,,,3055,10
,,,3056,10
,,,3057,10
,,,3058,10
,,,3059,10
,,,3060,10
,,,3061,10
,,,3062,10
,,,3063,10
,,,3064,10
,,,3065,10
,,,3066,10
,,,3067,10
,,,3068,10
,,,3069,10
,,,3070,10
,,,3071,10
,,,3072,10
,,,3073,10
,,,3074,10
,,,3075,10
,,,3076,10
,,,3077,10
,,,3078,10
,,,3079,10
,,,3080,10
,,,3081,10
,,,3082,10
,,,3083,10
,,,3084,10
,,,3085,10
,,,3086,10
,,,3087,10
,,,3088,10
,,,3089,10
,,,3090,10
,,,3091,10
,,,3092,10
,,,3093,10
,,,3094,10
,,,3095,10
,,,3096,10
,,,3097,10
,,,3098,10
,,,3099,10
,,,3100,10
,,,3101,10
,,,3102,10
,,,3103,10
,,,3104,10
,,,3105,10
,,,3106,10
,,,3107,10
,,,3108,10
,,,3109,10
,,,3110,10
,,,3111,10
,,,3112,10
,,,3113,10
,,,3114,10
,,,3115,10
,,,3116,10
,,,3117,10
,,,3118,10
,,,3119,10
,,,3120,10
,,,3121,10
,,,3122,10
,,,3123,10
,,,3124,10
,,,3125,10
,,,3126,10
,,,3127,10
,,,3128,10
,,,3129,10
,,,3130,10
,,,3131,10
,,,3132,10
,,,3133,10
,,,3134,10
,,,3135,10
,,,3136,10
,,,3137,10
,,,3138,10
,,,3139,10
,,,3140,10
,,,3141,10
,,,3142,10
,,,3143,10
,,,3144,10
,,,3145,10
,,,3146,10
,,,3147,10
,,,3148,10
,,,3149,10
,,,3150,10
,,,3151,10
,,,3152,10
,,,3153,10
,,,3154,10
,,,3155,10
,,,3156,10
,,,3157,10
,,,3158,10
,,,3159,10
,,,3160,10
,,,3161,10
,,,3162,10
,,,3163,10
,,,3164,10
,,,3165,10
,,,3166,10
,,,3167,10
,,,3168,10
,,,3169,10
,,,3170,10
,,,3171,10
,,,3172,10
,,,3173,10
,,,3174,10
,,,3175,10
,,,3176,10
,,,3177,10
,,,3178,10
,,,3179,10
,,,3180,10
,,,3181,10
,,,3182,10
,,,3183,10
,,,3184,10
,,,3185,10
,,,3186,10
,,,3187,10
,,,3188,10
,,,3189,10
,,,3190,10
,,,3191,10
,,,3192,10
,,,3193,10
,,,3194,10
,,,3195,10
,,,3196,10
,,,3197,10
,,,3198,10
,,,3199,10
,,,3200,10
,,,3201,10
,,,3202,10
,,,3203,10
,,,3204,10
,,,3205,10
,,,3206,10
,,,3207,10
,,,3208,10
,,,3209,10
,,,3210,10
,,,3211,10
,,,3212,10
,,,3213,10
,,,3214,10
,,,3215,10
,,,3216,10
,,,3217,10
,,,3218,10
,,,3219,10
,,,3220,10
,,,3221,10
,,,3222,10
,,,3223,10
,,,3224,10
,,,3225,10
,,,3226,10
,,,3227,10
,,,3228,10
,,,3229,10
,,,3230,10
,,,3231,10
,,,3232,10
,,,3233,10
,,,3234,10
,,,3235,10
,,,3236,10
,,,3237,10
,,,3238,10
,,,3239,10
,,,3240,10
,,,3241,10
,,,3242,10
,,,3243,10
,,,3244,10
,,,3245,10
,,,3246,10
,,,3247,10
,,,3248,10
,,,3249,10
,,,3250,10
,,,3251,10
,,,3252,10
,,,3253,10
,,,3254,10
,,,3255,10
,,,3256,10
,,,3257,10
,,,3258,10
,,,3259,10
,,,3260,10
,,,3261,10
,,,3262,10
,,,3263,10
,,,3264,10
,,,3265,10
,,,3266,10
,,,3267,10
,,,3268,10
,,,3269,10
,,,3270,10
,,,3271,10
,,,3272,10
,,,3273,10
,,,3274,10
,,,3275,10
,,,3276,10
,,,3277,10
,,,3278,10
,,,3279,10
,,,3280,10
,,,3281,10
,,,3282,10
,,,3283,10
,,,3284,10
,,,3285,10
,,,3286,10
,,,3287,10
,,,3288,10
,,,3289,10
,,,3290,10
,,,3291,10
,,,3292,10
,,,3293,10
,,,3294,10
,,,3295,10
,,,3296,10
,,,3297,10
,,,3298,10
,,,3299,10
,,,3300,10
,,,3301,10
,,,3302,10
,,,3303,10
,,,3304,10
,,,3305,10
,,,3306,10
,,,3307,10
,,,3308,10
,,,3309,10
,,,3310,10
,,,3311,10
,,,3312,10
,,,3313,10
,,,3314,10
,,,3315,10
,,,3316,10
,,,3317,10
,,,3318,10
,,,3319,10
,,,3320,10
,,,3321,10
,,,3322,10
,,,3323,10
,,,3324,10
,,,3325,10
,,,3326,10
,,,3327,10
,,,3328,10
,,,3329,10
,,,3330,10
,,,3331,10
,,,3332,10
,,,3333,10
,,,3334,10
,,,3335,10
,,,3336,10
,,,3337,10
,,,3338,10
,,,3339,10
,,,3340,10
,,,3341,10
,,,3342,10
,,,3343,10
,,,3344,10
,,,3345,10
,,,3346,10
,,,3347,10
,,,3348,10
,,,3349,10
,,,3350,10
,,,3351,10
,,,3352,10
,,,3353,10
,,,3354,10
,,,3355,10
,,,3356,10
,,,3357,10
,,,3358,10
,,,3359,10
,,,3360,10
,,,3361,10
,,,3362,10
,,,3363,10
,,,3364,10
,,,3365,10
,,,3366,10
,,,3367,10
,,,3368,10
,,,3369,10
,,,3370,10
,,,3371,10
,,,3372,10
,,,3373,10
,,,3374,10
,,,3375,10
,,,3376,10
,,,3377,10
,,,3378,10
,,,3379,10
,,,3380,10
,,,3381,10
,,,3382,10
,,,3383,10
,,,3384,10
,,,3385,10
,,,3386,10
,,,3387,10
,,,3388,10
,,,3389,10
,,,3390,10
,,,3391,10
,,,3392,10
,,,3393,10
,,,3394,10
,,,3395,10
,,,3396,10
,,,3397,10
,,,3398,10
,,,3399,10
,,,3400,10
,,,3401,10
,,,3402,10
,,,3403,10
,,,3404,10
,,,3405,10
,,,3406,10
,,,3407,10
,,,3408,10
,,,3409,10
,,,3410,10
,,,3411,10
,,,3412,10
,,,3413,10
,,,3414,10
,,,3415,10
,,,3416,10
,,,3417,10
,,,3418,10
,,,3419,10
,,,3420,10
,,,3421,10
,,,3422,10
,,,3423,10
,,,3424,10
,,,3425,10
,,,3426,10
,,,3427,10
,,,3428,10
,,,3429,10
,,,3430,10
,,,3431,10
,,,3432,10
,,,3433,10
,,,3434,10
,,,3435,10
,,,3436,10
,,,3437,10
,,,3438,10
,,,3439,10
,,,3440,10
,,,3441,10
,,,3442,10
,,,3443,10
,,,3444,10
,,,3445,10
,,,3446,10
,,,3447,10
,,,3448,10
,,,3449,10
,,,3450,10
,,,3451,10
,,,3452,10
,,,3453,10
,,,3454,10
,,,3455,10
,,,3456,10
,,,3457,10
,,,3458,10
,,,3459,10
,,,3460,10
,,,3461,10
,,,3462,10
,,,3463,10
,,,3464,10
,,,3465,10
,,,3466,10
,,,3467,10
,,,3468,10
,,,3469,10
,,,3470,10
,,,3471,10
,,,3472,10
,,,3473,10
,,,3474,10
,,,3475,10
,,,3476,10
,,,3477,10
,,,3478,10
,,,3479,10
,,,3480,10
,,,3481,10
,,,3482,10
,,,3483,10
,,,3484,10
,,,3485,10
,,,3486,10
,,,3487,10
,,,3488,10
,,,3489,10
,,,3490,10
,,,3491,10
,,,3492,10
,,,3493,10
,,,3494,10
,,,3495,10
,,,3496,10
,,,3497,10
,,,3498,10
,,,3499,10
,,,3500,10
,,,3501,10
,,,3502,10
,,,3503,10
,,,3504,10
,,,3505,10
,,,3506,10
,,,3507,10
,,,3508,10
,,,3509,10
,,,3510,10
,,,3511,10
,,,3512,10
,,,3513,10
,,,3514,10
,,,3515,10
,,,3516,10
,,,3517,10
,,,3518,10
,,,3519,10
,,,3520,10
,,,3521,10
,,,3522,10
,,,3523,10
,,,3524,10
,,,3525,10
,,,3526,10
,,,3527,10
,,,3528,10
,,,3529,10
,,,3530,10
,,,3531,10
,,,3532,10
,,,3533,10
,,,3534,10
,,,3535,10
,,,3536,10
,,,3537,10
,,,3538,10
,,,3539,10
,,,3540,10
,,,3541,10
,,,3542,10
,,,3543,10
,,,3544,10
,,,3545,10
,,,3546,10
,,,3547,10
,,,3548,10
,,,3549,10
,,,3550,10
,,,3551,10
,,,3552,10
,,,3553,10
,,,3554,10
,,,3555,10
,,,3556,10
,,,3557,10
,,,3558,10
,,,3559,10
,,,3560,10
,,,3561,10
,,,3562,10
,,,3563,10
,,,3564,10
,,,3565,10
,,,3566,10
,,,3567,10
,,,3568,10
,,,3569,10
,,,3570,10
,,,3571,10
,,,3572,10
,,,3573,10
,,,3574,10
,,,3575,10
,,,3576,10
,,,3577,10
,,,3578,10
,,,3579,10
,,,3580,10
,,,3581,10
,,,3582,10
,,,3583,10
,,,3584,10
,,,3585,10
,,,3586,10
,,,3587,10
,,,3588,10
,,,3589,10
,,,3590,10
,,,3591,10
,,,3592,10
,,,3593,10
,,,3594,10
,,,3595,10
,,,3596,10
,,,3597,10
,,,3598,10
,,,3599,10
,,,3600,10
,,,3601,10
,,,3602,10
,,,3603,10
,,,3604,10
,,,3605,10
,,,3606,10
,,,3607,10
,,,3608,10
,,,3609,10
,,,3610,10
,,,3611,10
,,,3612,10
,,,3613,10
,,,3614,10
,,,3615,10
,,,3616,10
,,,3617,10
,,,3618,10
,,,3619,10
,,,3620,10
,,,3621,10
,,,3622,10
,,,3623,10
,,,3624,10
,,,3625,10
,,,3626,10
,,,3627,10
,,,3628,10
,,,3629,10
,,,3630,10
,,,3631,10
,,,3632,10
,,,3633,10
,,,3634,10
,,,3635,10
,,,3636,10
,,,3637,10
,,,3638,10
,,,3639,10
,,,3640,10
,,,3641,10
,,,3642,10
,,,3643,10
,,,3644,10
,,,3645,10
,,,3646,10
,,,3647,10
,,,3648,10
,,,3649,10
,,,3650,10
,,,3651,10
,,,3652,10
,,,3653,10
,,,3654,10
,,,3655,10
,,,3656,10
,,,3657,10
,,,3658,10
,,,3659,10
,,,3660,10
,,,3661,10
,,,3662,10
,,,3663,10
,,,3664,10
,,,3665,10
,,,3666,10
,,,3667,10
,,,3668,10
,,,3669,10
,,,3670,10
,,,3671,10
,,,3672,10
,,,3673,10
,,,3674,10
,,,3675,10
,,,3676,10
,,,3677,10
,,,3678,10
,,,3679,10
,,,3680,10
,,,3681,10
,,,3682,10
,,,3683,10
,,,3684,10
,,,3685,10
,,,3686,10
,,,3687,10
,,,3688,10
,,,3689,10
,,,3690,10
,,,3691,10
,,,3692,10
,,,3693,10
,,,3694,10
,,,3695,10
,,,3696,10
,,,3697,10
,,,3698,10
,,,3699,10
,,,3700,10
,,,3701,10
,,,3702,10
,,,3703,10
,,,3704,10
,,,3705,10
,,,3706,10
,,,3707,10
,,,3708,10
,,,3709,10
,,,3710,10
,,,3711,10
,,,3712,10
,,,3713,10
,,,3714,10
,,,3715,10
,,,3716,10
,,,3717,10
,,,3718,10
,,,3719,10
,,,3720,10
,,,3721,10
,,,3722,10
,,,3723,10
,,,3724,10
,,,3725,10
,,,3726,10
,,,3727,10
,,,3728,10
,,,3729,10
,,,3730,10
,,,3731,10
,,,3732,10
,,,3733,10
,,,3734,10
,,,3735,10
,,,3736,10
,,,3737,10
,,,3738,10
,,,3739,10
,,,3740,10
,,,3741,10
,,,3742,10
,,,3743,10
,,,3744,10
,,,3745,10
,,,3746,10
,,,3747,10
,,,3748,10
,,,3749,10
,,,3750,10
,,,3751,10
,,,3752,10
,,,3753,10
,,,3754,10
,,,3755,10
,,,3756,10
,,,3757,10
,,,3758,10
,,,3759,10
,,,3760,10
,,,3761,10
,,,3762,10
,,,3763,10
,,,3764,10
,,,3765,10
,,,3766,10
,,,3767,10
,,,3768,10
,,,3769,10
,,,3770,10
,,,3771,10
,,,3772,10
